<svg width="44" height="50" viewBox="0 0 44 50" fill="none" xmlns="http://www.w3.org/2000/svg">
<rect width="44" height="50" fill="white"/>
<path d="M44 50H0V0H44V50ZM1.34493 48.6627H42.6491V1.33136H1.34493V48.6627Z" fill="#B38869"/>
<path d="M38.4409 17.4732H4.94922V5.11816H38.4349V17.4732H38.4409ZM6.30012 16.1359H37.0959V6.44952H6.30012V16.1359Z" fill="#B38869"/>
<path d="M12.3134 27.1361H4.94922V19.8994H12.3134V27.1361ZM6.30012 25.8047H10.9685V21.2308H6.30012V25.8047Z" fill="#B38869"/>
<path d="M12.3134 36.2665H4.94922V29.0298H12.3134V36.2665ZM6.30012 34.9351H10.9685V30.3611H6.30012V34.9351Z" fill="#B38869"/>
<path d="M12.3134 45.3964H4.94922V38.1597H12.3134V45.3964ZM6.30012 44.065H10.9685V39.491H6.30012V44.065Z" fill="#B38869"/>
<path d="M21.0765 36.2665H13.7183V29.0298H21.0765V36.2665ZM15.0632 34.9351H19.7256V30.3611H15.0632V34.9351Z" fill="#B38869"/>
<path d="M21.0765 27.1361H13.7183V19.8994H21.0765V27.1361ZM15.0632 25.8047H19.7256V21.2308H15.0632V25.8047Z" fill="#B38869"/>
<path d="M21.0765 45.3964H13.7183V38.1597H21.0765V45.3964ZM15.0632 44.065H19.7256V39.491H15.0632V44.065Z" fill="#B38869"/>
<path d="M29.8872 36.2665H22.5229V29.0298H29.8872V36.2665ZM23.8739 34.9351H28.5422V30.3611H23.8739V34.9351Z" fill="#B38869"/>
<path d="M29.8872 27.1361H22.5229V19.8994H29.8872V27.1361ZM23.8739 25.8047H28.5422V21.2308H23.8739V25.8047Z" fill="#B38869"/>
<path d="M29.8872 45.3964H22.5229V38.1597H29.8872V45.3964ZM23.8739 44.065H28.5422V39.491H23.8739V44.065Z" fill="#B38869"/>
<path d="M38.6922 45.444H31.334V29.0298H38.6922V45.444ZM32.6789 44.1126H37.3473V30.3611H32.6789V44.1126Z" fill="#B38869"/>
<path d="M38.6922 27.1361H31.334V19.8994H38.6922V27.1361ZM32.6789 25.8047H37.3473V21.2308H32.6789V25.8047Z" fill="#B38869"/>
<path d="M27.2932 11.9408H17.8727C17.5021 11.9408 17.1973 11.6449 17.1973 11.2722C17.1973 10.8994 17.4961 10.6035 17.8727 10.6035H27.2932C27.6638 10.6035 27.9686 10.8994 27.9686 11.2722C27.9686 11.6449 27.6698 11.9408 27.2932 11.9408Z" fill="#B38869"/>
<path d="M33.7308 11.9408H29.6183C29.2477 11.9408 28.9429 11.6449 28.9429 11.2722C28.9429 10.8994 29.2417 10.6035 29.6183 10.6035H33.7308C34.1014 10.6035 34.4063 10.8994 34.4063 11.2722C34.4063 11.6449 34.1074 11.9408 33.7308 11.9408Z" fill="#B38869"/>
</svg>
