<svg width="13" height="7" viewBox="0 0 13 7" fill="none" xmlns="http://www.w3.org/2000/svg">
<path d="M6.48828 6.72852L0.000214383 0.240449L12.7603 0.240449L6.48828 6.72852Z" fill="#B38869"/>
</svg>
